{
    "id": "z14pfsub",
    "description": "",
    "parentClass": "",
    "implementsInterfaces": "",
    "listingParentClass": "",
    "useTraits": "",
    "listingUseTraits": "",
    "allowInherit": false,
    "allowVariants": null,
    "showVariants": false,
    "layoutDefinitions": {
        "fieldtype": "panel",
        "labelWidth": 100,
        "layout": null,
        "border": false,
        "name": "pimcore_root",
        "type": null,
        "region": null,
        "title": null,
        "width": null,
        "height": null,
        "collapsible": false,
        "collapsed": false,
        "bodyStyle": null,
        "datatype": "layout",
        "permissions": null,
        "childs": [
            {
                "fieldtype": "panel",
                "labelWidth": 100,
                "layout": null,
                "border": false,
                "name": "Layout",
                "type": null,
                "region": null,
                "title": "Settings",
                "width": null,
                "height": null,
                "collapsible": false,
                "collapsed": false,
                "bodyStyle": "",
                "datatype": "layout",
                "permissions": null,
                "childs": [
                    {
                        "fieldtype": "fieldset",
                        "labelWidth": 100,
                        "name": "Relations",
                        "type": null,
                        "region": null,
                        "title": "Relations",
                        "width": null,
                        "height": null,
                        "collapsible": true,
                        "collapsed": false,
                        "bodyStyle": "",
                        "datatype": "layout",
                        "permissions": null,
                        "childs": [
                            {
                                "fieldtype": "manyToOneRelation",
                                "width": "",
                                "assetUploadPath": "",
                                "relationType": true,
                                "queryColumnType": {
                                    "id": "int(11)",
                                    "type": "enum('document','asset','object')"
                                },
                                "phpdocType": "\\Pimcore\\Model\\Document\\Page | \\Pimcore\\Model\\Document\\Snippet | \\Pimcore\\Model\\Document | \\Pimcore\\Model\\Asset | \\Pimcore\\Model\\DataObject\\AbstractObject",
                                "objectsAllowed": true,
                                "assetsAllowed": false,
                                "assetTypes": [],
                                "documentsAllowed": false,
                                "documentTypes": [],
                                "classes": [
                                    {
                                        "classes": "MembersUser"
                                    }
                                ],
                                "pathFormatterClass": "",
                                "name": "membersUser",
                                "title": "membersUser",
                                "tooltip": "",
                                "mandatory": false,
                                "noteditable": false,
                                "index": false,
                                "locked": false,
                                "style": "",
                                "permissions": null,
                                "datatype": "data",
                                "invisible": false,
                                "visibleGridView": true,
                                "visibleSearch": false
                            },
                            {
                                "fieldtype": "manyToOneRelation",
                                "width": "",
                                "assetUploadPath": "",
                                "relationType": true,
                                "queryColumnType": {
                                    "id": "int(11)",
                                    "type": "enum('document','asset','object')"
                                },
                                "phpdocType": "\\Pimcore\\Model\\Document\\Page | \\Pimcore\\Model\\Document\\Snippet | \\Pimcore\\Model\\Document | \\Pimcore\\Model\\Asset | \\Pimcore\\Model\\DataObject\\AbstractObject",
                                "objectsAllowed": true,
                                "assetsAllowed": false,
                                "assetTypes": [],
                                "documentsAllowed": false,
                                "documentTypes": [],
                                "classes": [],
                                "pathFormatterClass": "",
                                "name": "relatedObject",
                                "title": "Object",
                                "tooltip": "",
                                "mandatory": false,
                                "noteditable": false,
                                "index": false,
                                "locked": false,
                                "style": "",
                                "permissions": null,
                                "datatype": "data",
                                "invisible": false,
                                "visibleGridView": true,
                                "visibleSearch": false
                            },
                            {
                                "fieldtype": "manyToOneRelation",
                                "width": "",
                                "assetUploadPath": "",
                                "relationType": true,
                                "queryColumnType": {
                                    "id": "int(11)",
                                    "type": "enum('document','asset','object')"
                                },
                                "phpdocType": "\\Pimcore\\Model\\Document\\Page | \\Pimcore\\Model\\Document\\Snippet | \\Pimcore\\Model\\Document | \\Pimcore\\Model\\Asset | \\Pimcore\\Model\\DataObject\\AbstractObject",
                                "objectsAllowed": true,
                                "assetsAllowed": false,
                                "assetTypes": [],
                                "documentsAllowed": false,
                                "documentTypes": [],
                                "classes": [
                                    {
                                        "classes": "Kitt3nPimcoreFormForm"
                                    }
                                ],
                                "pathFormatterClass": "",
                                "name": "submittedForm",
                                "title": "Form",
                                "tooltip": "",
                                "mandatory": true,
                                "noteditable": false,
                                "index": false,
                                "locked": false,
                                "style": "",
                                "permissions": null,
                                "datatype": "data",
                                "invisible": false,
                                "visibleGridView": true,
                                "visibleSearch": false
                            },
                            {
                                "fieldtype": "textarea",
                                "width": 800,
                                "height": 800,
                                "maxLength": null,
                                "showCharCount": false,
                                "excludeFromSearchIndex": false,
                                "queryColumnType": "longtext",
                                "columnType": "longtext",
                                "phpdocType": "string",
                                "name": "submittedValues",
                                "title": "Values",
                                "tooltip": "",
                                "mandatory": true,
                                "noteditable": false,
                                "index": false,
                                "locked": false,
                                "style": "",
                                "permissions": null,
                                "datatype": "data",
                                "relationType": false,
                                "invisible": false,
                                "visibleGridView": true,
                                "visibleSearch": false
                            }
                        ],
                        "locked": false
                    }
                ],
                "locked": false,
                "icon": ""
            }
        ],
        "locked": false,
        "icon": null
    },
    "icon": "\/bundles\/pimcoreadmin\/img\/flat-color-icons\/email.svg",
    "previewUrl": "",
    "group": "ZWEI14",
    "showAppLoggerTab": false,
    "linkGeneratorReference": "",
    "compositeIndices": [],
    "generateTypeDeclarations": false,
    "showFieldLookup": false,
    "propertyVisibility": {
        "grid": {
            "id": true,
            "key": true,
            "path": true,
            "published": true,
            "modificationDate": true,
            "creationDate": true
        },
        "search": {
            "id": true,
            "key": true,
            "path": true,
            "published": true,
            "modificationDate": true,
            "creationDate": true
        }
    },
    "enableGridLocking": false
}